{
  "connection": "default",
  "collectionName": "contracts",
  "info": {
    "name": "contracts",
    "description": ""
  },
  "options": {
    "increments": true,
    "timestamps": [
      "created_at",
      "updated_at"
    ],
    "comment": ""
  },
  "attributes": {
    "id_contract": {
      "type": "biginteger",
      "unique": true,
      "required": true
    },
    "id_host": {
      "type": "biginteger",
      "unique": true
    },
    "id_guest": {
      "type": "biginteger",
      "unique": true
    },
    "fromDate": {
      "type": "date"
    },
    "toDate": {
      "type": "date"
    },
    "price": {
      "type": "biginteger"
    },
    "deposits": {
      "type": "biginteger"
    },
    "cycle": {
      "enum": [
        "_1_month",
        "_3_month",
        "_6_month",
        "_12_month"
      ],
      "type": "enumeration"
    },
    "bills": {
      "collection": "bill",
      "via": "contract"
    }
  }
}