{
  "routes": [
    {
      "method": "GET",
      "path": "/rooms",
      "handler": "Room.find",
      "config": {
        "policies": []
      }
    },
    {
      "method": "GET",
      "path": "/rooms/count",
      "handler": "Room.count",
      "config": {
        "policies": []
      }
    },
    {
      "method": "GET",
      "path": "/rooms/:id",
      "handler": "Room.findOne",
      "config": {
        "policies": []
      }
    },
    {
      "method": "POST",
      "path": "/rooms",
      "handler": "Room.create",
      "config": {
        "policies": []
      }
    },
    {
      "method": "PUT",
      "path": "/rooms/:id",
      "handler": "Room.update",
      "config": {
        "policies": []
      }
    },
    {
      "method": "DELETE",
      "path": "/rooms/:id",
      "handler": "Room.delete",
      "config": {
        "policies": []
      }
    }
  ]
}
